<svg width="90" height="100" viewBox="0 0 90 100" fill="none" xmlns="http://www.w3.org/2000/svg">
<path d="M83.1512 63.6646C86.2568 57.6863 88.0425 50.7764 88.0425 43.5559C88.0425 19.4876 68.5549 0 44.4866 0C20.4182 0 0.930664 19.4876 0.930664 43.5559C0.930664 67.6242 20.4182 87.1118 44.4866 87.1118C47.1263 87.1118 49.7661 86.8789 52.3282 86.413L62.0331 100L81.2878 67.0031C81.9866 65.9938 82.6077 64.9068 83.1512 63.8199V63.6646Z" fill="#BDBDBD"/>
<path d="M10.6361 15.7606V23.2917H2.25098V17.3911C2.25098 14.2078 2.71681 11.8786 3.64849 10.4035C4.89073 8.4625 6.75408 7.06498 9.39383 6.05566L11.3348 8.54014C9.70439 9.08361 8.5398 9.93765 7.84104 11.0246C7.06464 12.1116 6.67644 13.6644 6.5988 15.7606H10.6361Z" fill="#FF0000"/>
<path d="M22.1263 15.7601V23.2912H13.7412V17.3906C13.7412 14.2073 14.207 11.8782 15.1387 10.403C16.381 8.46201 18.2443 7.06449 20.8841 6.05518L22.8251 8.53965C21.1946 9.08313 20.03 9.93716 19.3313 11.0241C18.5549 12.1111 18.1667 13.6639 18.089 15.7601H22.1263Z" fill="#FF0000"/>
<path d="M80.6665 66.1497V58.6963H89.0516V64.5969C89.0516 67.7801 88.5858 70.1093 87.6541 71.5845C86.4119 73.5255 84.5485 74.923 81.9088 75.9323L79.9678 73.4478C81.5982 72.9044 82.7628 72.0503 83.4616 70.9634C84.238 69.8764 84.6262 68.3236 84.7038 66.2273H80.6665V66.1497Z" fill="#FF0000"/>
<path d="M69.1763 66.1502V58.6968H77.5614V64.5974C77.5614 67.7806 77.0956 70.1098 76.1639 71.585C74.9216 73.526 73.0583 74.9235 70.4185 75.9328L68.4775 73.2931C70.108 72.7496 71.2726 71.8955 71.9713 70.8086C72.7477 69.7216 73.1359 68.1688 73.2136 66.0726H69.1763V66.1502Z" fill="#FF0000"/>
<path d="M72.9033 32.6084H11.9561V36.0245H72.9033V32.6084Z" fill="#FF0000"/>
<path d="M72.9033 39.752H11.9561V43.1681H72.9033V39.752Z" fill="#FF0000"/>
<path d="M72.9033 47.1274H35.248V50.5436H72.9033V47.1274Z" fill="#FF0000"/>
</svg>
